Componets/Ram_Controller/Ram_Controller/blinky.vcd
$version Generated by VerilatedVcd $end
$date Wed Nov  9 22:47:36 2022
 $end
$timescale   1ps $end

 $scope module TOP $end
  $var wire 13 > a [12:0] $end
  $var wire 26 4 addr_in_read [25:0] $end
  $var wire 26 5 addr_in_write [25:0] $end
  $var wire  2 ? ba [1:0] $end
  $var wire  8 3 blue_in [7:0] $end
  $var wire  8 8 blue_out [7:0] $end
  $var wire  1 = casn $end
  $var wire  1 9 cke $end
  $var wire  1 . clk $end
  $var wire  1 : csn $end
  $var wire 16 A d [15:0] $end
  $var wire  1 0 data_ready $end
  $var wire  2 @ dqm [1:0] $end
  $var wire  8 2 green_in [7:0] $end
  $var wire  8 7 green_out [7:0] $end
  $var wire  1 < rasn $end
  $var wire  8 1 red_in [7:0] $end
  $var wire  8 6 red_out [7:0] $end
  $var wire  1 / reset $end
  $var wire  1 ; wen $end
  $var wire  1 - write_readn $end
  $scope module Ram_Controller $end
   $var wire  4 W ACT [3:0] $end
   $var wire  4 T BST [3:0] $end
   $var wire  4 R DESL [3:0] $end
   $var wire  4 Z MRS [3:0] $end
   $var wire  4 S NOP [3:0] $end
   $var wire  4 X PRE [3:0] $end
   $var wire  4 U READ [3:0] $end
   $var wire  4 Y REFSELF [3:0] $end
   $var wire  8 N T [7:0] $end
   $var wire  8 E Tdlp [7:0] $end
   $var wire  8 D Tmrd [7:0] $end
   $var wire  8 O Trc [7:0] $end
   $var wire  8 E Trcd [7:0] $end
   $var wire  8 E Trp [7:0] $end
   $var wire  8 D Trrd [7:0] $end
   $var wire  4 V WRITE [3:0] $end
   $var wire 13 > a [12:0] $end
   $var wire  8 F activ [7:0] $end
   $var wire 26 4 addr_in_read [25:0] $end
   $var wire 26 5 addr_in_write [25:0] $end
   $var wire  8 D auto_refresh0 [7:0] $end
   $var wire  8 E auto_refresh1 [7:0] $end
   $var wire  2 ? ba [1:0] $end
   $var wire  8 3 blue_in [7:0] $end
   $var wire  8 8 blue_out [7:0] $end
   $var wire  1 = casn $end
   $var wire  8 J cha_bank [7:0] $end
   $var wire  8 I cha_row [7:0] $end
   $var wire  1 9 cke $end
   $var wire  1 . clk $end
   $var wire 32 $ cnt [31:0] $end
   $var wire  4 % com [3:0] $end
   $var wire  1 : csn $end
   $var wire  2 ' cur_bank [1:0] $end
   $var wire  2 * cur_bank_new [1:0] $end
   $var wire 26 ( cur_col [25:0] $end
   $var wire 26 + cur_col_new [25:0] $end
   $var wire 26 & cur_row [25:0] $end
   $var wire 26 ) cur_row_new [25:0] $end
   $var wire 16 A d [15:0] $end
   $var wire  1 0 data_ready $end
   $var wire  1 P data_ready_old $end
   $var wire  2 @ dqm [1:0] $end
   $var wire  8 2 green_in [7:0] $end
   $var wire  8 7 green_out [7:0] $end
   $var wire  8 M load_mode [7:0] $end
   $var wire  1 Q posedge_ready $end
   $var wire  8 L pre_wait [7:0] $end
   $var wire  8 C precharge [7:0] $end
   $var wire  1 < rasn $end
   $var wire  8 H read [7:0] $end
   $var wire  8 1 red_in [7:0] $end
   $var wire  8 6 red_out [7:0] $end
   $var wire  1 / reset $end
   $var wire  2 , rgb_cnt [1:0] $end
   $var wire  8 # state [7:0] $end
   $var wire  8 B wait0 [7:0] $end
   $var wire  1 ; wen $end
   $var wire  8 G write [7:0] $end
   $var wire  8 K write_pix [7:0] $end
   $var wire  1 - write_readn $end
  $upscope $end
 $upscope $end
$enddefinitions $end


#2000
b00000000 #
b00000000000000000000000000000000 $
b0000 %
b00111111111111111111111111 &
b00 '
b00000000000000000000000000 (
b00000000000000000000000000 )
b00 *
b00000000000000000000000000 +
b00 ,
0-
0.
0/
00
b00000000 1
b00000000 2
b00000000 3
b00000000000000000000000000 4
b00000000000000000000000001 5
b00000000 6
b00000000 7
b00000000 8
19
0:
0;
0<
0=
b0000000000000 >
b00 ?
b00 @
b0000000000000000 A
b00000000 B
b00000001 C
b00000010 D
b00000011 E
b00000100 F
b00000101 G
b00000110 H
b00000111 I
b00001000 J
b00001001 K
b00001010 L
b00001011 M
b11111010 N
b00001100 O
0P
0Q
b1000 R
b0111 S
b0110 T
b0101 U
b0100 V
b0011 W
b0010 X
b0001 Y
b0000 Z
#4000
b00000000000000000000000000000001 $
b0111 %
1.
1;
1<
1=
#6000
0.
#8000
b00000000000000000000000000000010 $
1.
#10000
0.
#12000
b00000000000000000000000000000011 $
1.
#14000
0.
#16000
b00000000000000000000000000000100 $
1.
#18000
0.
#20000
b00000000000000000000000000000101 $
1.
#22000
0.
#24000
b00000000000000000000000000000110 $
1.
#26000
0.
#28000
b00000000000000000000000000000111 $
1.
#30000
0.
#32000
b00000000000000000000000000001000 $
1.
#34000
0.
#36000
b00000000000000000000000000001001 $
1.
#38000
0.
#40000
b00000000000000000000000000001010 $
1.
#42000
0.
#44000
b00000000000000000000000000001011 $
1.
#46000
0.
#48000
b00000000000000000000000000001100 $
1.
#50000
0.
#52000
b00000000000000000000000000001101 $
1.
#54000
0.
#56000
b00000000000000000000000000001110 $
1.
#58000
0.
#60000
b00000000000000000000000000001111 $
1.
#62000
0.
#64000
b00000000000000000000000000010000 $
1.
#66000
0.
#68000
b00000000000000000000000000010001 $
1.
#70000
0.
#72000
b00000000000000000000000000010010 $
1.
#74000
0.
#76000
b00000000000000000000000000010011 $
1.
#78000
0.
#80000
b00000000000000000000000000010100 $
1.
#82000
0.
#84000
b00000000000000000000000000010101 $
1.
#86000
0.
#88000
b00000000000000000000000000010110 $
1.
#90000
0.
#92000
b00000000000000000000000000010111 $
1.
#94000
0.
#96000
b00000000000000000000000000011000 $
1.
#98000
0.
#100000
b00000000000000000000000000011001 $
1.
#102000
0.
#104000
b00000000000000000000000000011010 $
1.
#106000
0.
#108000
b00000000000000000000000000011011 $
1.
#110000
0.
#112000
b00000000000000000000000000011100 $
1.
#114000
0.
#116000
b00000000000000000000000000011101 $
1.
#118000
0.
#120000
b00000000000000000000000000011110 $
1.
#122000
0.
#124000
b00000000000000000000000000011111 $
1.
#126000
0.
#128000
b00000000000000000000000000100000 $
1.
#130000
0.
#132000
b00000000000000000000000000100001 $
1.
#134000
0.
#136000
b00000000000000000000000000100010 $
1.
#138000
0.
#140000
b00000000000000000000000000100011 $
1.
#142000
0.
#144000
b00000000000000000000000000100100 $
1.
#146000
0.
#148000
b00000000000000000000000000100101 $
1.
#150000
0.
#152000
b00000000000000000000000000100110 $
1.
#154000
0.
#156000
b00000000000000000000000000100111 $
1.
#158000
0.
#160000
b00000000000000000000000000101000 $
1.
#162000
0.
#164000
b00000000000000000000000000101001 $
1.
#166000
0.
#168000
b00000000000000000000000000101010 $
1.
#170000
0.
#172000
b00000000000000000000000000101011 $
1.
#174000
0.
#176000
b00000000000000000000000000101100 $
1.
#178000
0.
#180000
b00000000000000000000000000101101 $
1.
#182000
0.
#184000
b00000000000000000000000000101110 $
1.
#186000
0.
#188000
b00000000000000000000000000101111 $
1.
#190000
0.
#192000
b00000000000000000000000000110000 $
1.
#194000
0.
#196000
b00000000000000000000000000110001 $
1.
#198000
0.
#200000
b00000000000000000000000000110010 $
1.
#202000
0.
#204000
b00000000000000000000000000110011 $
1.
#206000
0.
#208000
b00000000000000000000000000110100 $
1.
#210000
0.
#212000
b00000000000000000000000000110101 $
1.
#214000
0.
#216000
b00000000000000000000000000110110 $
1.
#218000
0.
#220000
b00000000000000000000000000110111 $
1.
#222000
0.
#224000
b00000000000000000000000000111000 $
1.
#226000
0.
#228000
b00000000000000000000000000111001 $
1.
#230000
0.
#232000
b00000000000000000000000000111010 $
1.
#234000
0.
#236000
b00000000000000000000000000111011 $
1.
#238000
0.
#240000
b00000000000000000000000000111100 $
1.
#242000
0.
#244000
b00000000000000000000000000111101 $
1.
#246000
0.
#248000
b00000000000000000000000000111110 $
1.
#250000
0.
#252000
b00000000000000000000000000111111 $
1.
#254000
0.
#256000
b00000000000000000000000001000000 $
1.
#258000
0.
#260000
b00000000000000000000000001000001 $
1.
#262000
0.
#264000
b00000000000000000000000001000010 $
1.
#266000
0.
#268000
b00000000000000000000000001000011 $
1.
#270000
0.
#272000
b00000000000000000000000001000100 $
1.
#274000
0.
#276000
b00000000000000000000000001000101 $
1.
#278000
0.
#280000
b00000000000000000000000001000110 $
1.
#282000
0.
#284000
b00000000000000000000000001000111 $
1.
#286000
0.
#288000
b00000000000000000000000001001000 $
1.
#290000
0.
#292000
b00000000000000000000000001001001 $
1.
#294000
0.
#296000
b00000000000000000000000001001010 $
1.
#298000
0.
#300000
b00000000000000000000000001001011 $
1.
#302000
0.
#304000
b00000000000000000000000001001100 $
1.
#306000
0.
#308000
b00000000000000000000000001001101 $
1.
#310000
0.
#312000
b00000000000000000000000001001110 $
1.
#314000
0.
#316000
b00000000000000000000000001001111 $
1.
#318000
0.
#320000
b00000000000000000000000001010000 $
1.
#322000
0.
#324000
b00000000000000000000000001010001 $
1.
#326000
0.
#328000
b00000000000000000000000001010010 $
1.
#330000
0.
#332000
b00000000000000000000000001010011 $
1.
#334000
0.
#336000
b00000000000000000000000001010100 $
1.
#338000
0.
#340000
b00000000000000000000000001010101 $
1.
#342000
0.
#344000
b00000000000000000000000001010110 $
1.
#346000
0.
#348000
b00000000000000000000000001010111 $
1.
#350000
0.
#352000
b00000000000000000000000001011000 $
1.
#354000
0.
#356000
b00000000000000000000000001011001 $
1.
#358000
0.
#360000
b00000000000000000000000001011010 $
1.
#362000
0.
#364000
b00000000000000000000000001011011 $
1.
#366000
0.
#368000
b00000000000000000000000001011100 $
1.
#370000
0.
#372000
b00000000000000000000000001011101 $
1.
#374000
0.
#376000
b00000000000000000000000001011110 $
1.
#378000
0.
#380000
b00000000000000000000000001011111 $
1.
#382000
0.
#384000
b00000000000000000000000001100000 $
1.
#386000
0.
#388000
b00000000000000000000000001100001 $
1.
#390000
0.
#392000
b00000000000000000000000001100010 $
1.
#394000
0.
#396000
b00000000000000000000000001100011 $
1.
#398000
0.
#400000
b00000000000000000000000001100100 $
1.
#402000
0.
#404000
b00000000000000000000000001100101 $
1.
#406000
0.
#408000
b00000000000000000000000001100110 $
1.
#410000
0.
#412000
b00000000000000000000000001100111 $
1.
#414000
0.
#416000
b00000000000000000000000001101000 $
1.
#418000
0.
#420000
b00000000000000000000000001101001 $
1.
#422000
0.
#424000
b00000000000000000000000001101010 $
1.
#426000
0.
#428000
b00000000000000000000000001101011 $
1.
#430000
0.
#432000
b00000000000000000000000001101100 $
1.
#434000
0.
#436000
b00000000000000000000000001101101 $
1.
#438000
0.
#440000
b00000000000000000000000001101110 $
1.
#442000
0.
#444000
b00000000000000000000000001101111 $
1.
#446000
0.
#448000
b00000000000000000000000001110000 $
1.
#450000
0.
#452000
b00000000000000000000000001110001 $
1.
#454000
0.
#456000
b00000000000000000000000001110010 $
1.
#458000
0.
#460000
b00000000000000000000000001110011 $
1.
#462000
0.
#464000
b00000000000000000000000001110100 $
1.
#466000
0.
#468000
b00000000000000000000000001110101 $
1.
#470000
0.
#472000
b00000000000000000000000001110110 $
1.
#474000
0.
#476000
b00000000000000000000000001110111 $
1.
#478000
0.
#480000
b00000000000000000000000001111000 $
1.
#482000
0.
#484000
b00000000000000000000000001111001 $
1.
#486000
0.
#488000
b00000000000000000000000001111010 $
1.
#490000
0.
#492000
b00000000000000000000000001111011 $
1.
#494000
0.
#496000
b00000000000000000000000001111100 $
1.
#498000
0.
#500000
b00000000000000000000000001111101 $
1.
#502000
0.
#504000
b00000000000000000000000001111110 $
1.
#506000
0.
#508000
b00000000000000000000000001111111 $
1.
#510000
0.
#512000
b00000000000000000000000010000000 $
1.
#514000
0.
#516000
b00000000000000000000000010000001 $
1.
#518000
0.
#520000
b00000000000000000000000010000010 $
1.
#522000
0.
#524000
b00000000000000000000000010000011 $
1.
#526000
0.
#528000
b00000000000000000000000010000100 $
1.
#530000
0.
#532000
b00000000000000000000000010000101 $
1.
#534000
0.
#536000
b00000000000000000000000010000110 $
1.
#538000
0.
#540000
b00000000000000000000000010000111 $
1.
#542000
0.
#544000
b00000000000000000000000010001000 $
1.
#546000
0.
#548000
b00000000000000000000000010001001 $
1.
#550000
0.
#552000
b00000000000000000000000010001010 $
1.
#554000
0.
#556000
b00000000000000000000000010001011 $
1.
#558000
0.
#560000
b00000000000000000000000010001100 $
1.
#562000
0.
#564000
b00000000000000000000000010001101 $
1.
#566000
0.
#568000
b00000000000000000000000010001110 $
1.
#570000
0.
#572000
b00000000000000000000000010001111 $
1.
#574000
0.
#576000
b00000000000000000000000010010000 $
1.
#578000
0.
#580000
b00000000000000000000000010010001 $
1.
#582000
0.
#584000
b00000000000000000000000010010010 $
1.
#586000
0.
#588000
b00000000000000000000000010010011 $
1.
#590000
0.
#592000
b00000000000000000000000010010100 $
1.
#594000
0.
#596000
b00000000000000000000000010010101 $
1.
#598000
0.
#600000
b00000000000000000000000010010110 $
1.
#602000
0.
#604000
b00000000000000000000000010010111 $
1.
#606000
0.
#608000
b00000000000000000000000010011000 $
1.
#610000
0.
#612000
b00000000000000000000000010011001 $
1.
#614000
0.
#616000
b00000000000000000000000010011010 $
1.
#618000
0.
#620000
b00000000000000000000000010011011 $
1.
#622000
0.
#624000
b00000000000000000000000010011100 $
1.
#626000
0.
#628000
b00000000000000000000000010011101 $
1.
#630000
0.
#632000
b00000000000000000000000010011110 $
1.
#634000
0.
#636000
b00000000000000000000000010011111 $
1.
#638000
0.
#640000
b00000000000000000000000010100000 $
1.
#642000
0.
#644000
b00000000000000000000000010100001 $
1.
#646000
0.
#648000
b00000000000000000000000010100010 $
1.
#650000
0.
#652000
b00000000000000000000000010100011 $
1.
#654000
0.
#656000
b00000000000000000000000010100100 $
1.
#658000
0.
#660000
b00000000000000000000000010100101 $
1.
#662000
0.
#664000
b00000000000000000000000010100110 $
1.
#666000
0.
#668000
b00000000000000000000000010100111 $
1.
#670000
0.
#672000
b00000000000000000000000010101000 $
1.
#674000
0.
#676000
b00000000000000000000000010101001 $
1.
#678000
0.
#680000
b00000000000000000000000010101010 $
1.
#682000
0.
#684000
b00000000000000000000000010101011 $
1.
#686000
0.
#688000
b00000000000000000000000010101100 $
1.
#690000
0.
#692000
b00000000000000000000000010101101 $
1.
#694000
0.
#696000
b00000000000000000000000010101110 $
1.
#698000
0.
#700000
b00000000000000000000000010101111 $
1.
#702000
0.
#704000
b00000000000000000000000010110000 $
1.
#706000
0.
#708000
b00000000000000000000000010110001 $
1.
#710000
0.
#712000
b00000000000000000000000010110010 $
1.
#714000
0.
#716000
b00000000000000000000000010110011 $
1.
#718000
0.
#720000
b00000000000000000000000010110100 $
1.
#722000
0.
#724000
b00000000000000000000000010110101 $
1.
#726000
0.
#728000
b00000000000000000000000010110110 $
1.
#730000
0.
#732000
b00000000000000000000000010110111 $
1.
#734000
0.
#736000
b00000000000000000000000010111000 $
1.
#738000
0.
#740000
b00000000000000000000000010111001 $
1.
#742000
0.
#744000
b00000000000000000000000010111010 $
1.
#746000
0.
#748000
b00000000000000000000000010111011 $
1.
#750000
0.
#752000
b00000000000000000000000010111100 $
1.
#754000
0.
#756000
b00000000000000000000000010111101 $
1.
#758000
0.
#760000
b00000000000000000000000010111110 $
1.
#762000
0.
#764000
b00000000000000000000000010111111 $
1.
#766000
0.
#768000
b00000000000000000000000011000000 $
1.
#770000
0.
#772000
b00000000000000000000000011000001 $
1.
#774000
0.
#776000
b00000000000000000000000011000010 $
1.
#778000
0.
#780000
b00000000000000000000000011000011 $
1.
#782000
0.
#784000
b00000000000000000000000011000100 $
1.
#786000
0.
#788000
b00000000000000000000000011000101 $
1.
#790000
0.
#792000
b00000000000000000000000011000110 $
1.
#794000
0.
#796000
b00000000000000000000000011000111 $
1.
#798000
0.
#800000
b00000000000000000000000011001000 $
1.
#802000
0.
#804000
b00000000000000000000000011001001 $
1.
#806000
0.
#808000
b00000000000000000000000011001010 $
1.
#810000
0.
#812000
b00000000000000000000000011001011 $
1.
#814000
0.
#816000
b00000000000000000000000011001100 $
1.
#818000
0.
#820000
b00000000000000000000000011001101 $
1.
#822000
0.
#824000
b00000000000000000000000011001110 $
1.
#826000
0.
#828000
b00000000000000000000000011001111 $
1.
#830000
0.
#832000
b00000000000000000000000011010000 $
1.
#834000
0.
#836000
b00000000000000000000000011010001 $
1.
#838000
0.
#840000
b00000000000000000000000011010010 $
1.
#842000
0.
#844000
b00000000000000000000000011010011 $
1.
#846000
0.
#848000
b00000000000000000000000011010100 $
1.
#850000
0.
#852000
b00000000000000000000000011010101 $
1.
#854000
0.
#856000
b00000000000000000000000011010110 $
1.
#858000
0.
#860000
b00000000000000000000000011010111 $
1.
#862000
0.
#864000
b00000000000000000000000011011000 $
1.
#866000
0.
#868000
b00000000000000000000000011011001 $
1.
#870000
0.
#872000
b00000000000000000000000011011010 $
1.
#874000
0.
#876000
b00000000000000000000000011011011 $
1.
#878000
0.
#880000
b00000000000000000000000011011100 $
1.
#882000
0.
#884000
b00000000000000000000000011011101 $
1.
#886000
0.
#888000
b00000000000000000000000011011110 $
1.
#890000
0.
#892000
b00000000000000000000000011011111 $
1.
#894000
0.
#896000
b00000000000000000000000011100000 $
1.
#898000
0.
#900000
b00000000000000000000000011100001 $
1.
#902000
0.
#904000
b00000000000000000000000011100010 $
1.
#906000
0.
#908000
b00000000000000000000000011100011 $
1.
#910000
0.
#912000
b00000000000000000000000011100100 $
1.
#914000
0.
#916000
b00000000000000000000000011100101 $
1.
#918000
0.
#920000
b00000000000000000000000011100110 $
1.
#922000
0.
#924000
b00000000000000000000000011100111 $
1.
#926000
0.
#928000
b00000000000000000000000011101000 $
1.
#930000
0.
#932000
b00000000000000000000000011101001 $
1.
#934000
0.
#936000
b00000000000000000000000011101010 $
1.
#938000
0.
#940000
b00000000000000000000000011101011 $
1.
#942000
0.
#944000
b00000000000000000000000011101100 $
1.
#946000
0.
#948000
b00000000000000000000000011101101 $
1.
#950000
0.
#952000
b00000000000000000000000011101110 $
1.
#954000
0.
#956000
b00000000000000000000000011101111 $
1.
#958000
0.
#960000
b00000000000000000000000011110000 $
1.
#962000
0.
#964000
b00000000000000000000000011110001 $
1.
#966000
0.
#968000
b00000000000000000000000011110010 $
1.
#970000
0.
#972000
b00000000000000000000000011110011 $
1.
#974000
0.
#976000
b00000000000000000000000011110100 $
1.
#978000
0.
#980000
b00000000000000000000000011110101 $
1.
#982000
0.
#984000
b00000000000000000000000011110110 $
1.
#986000
0.
#988000
b00000000000000000000000011110111 $
1.
#990000
0.
#992000
b00000000000000000000000011111000 $
1.
#994000
0.
#996000
b00000000000000000000000011111001 $
1.
#998000
0.
#1000000
b00000000000000000000000011111010 $
1.
#1002000
0.
#1004000
b00000001 #
b00000000000000000000000000000000 $
b0010 %
1.
0;
0<
b0010000000000 >
b11 ?
#1006000
0.
#1008000
b00000000000000000000000000000001 $
b0111 %
1.
1;
1<
b0000000000000 >
b00 ?
#1010000
0.
#1012000
b00000000000000000000000000000010 $
1.
#1014000
0.
#1016000
b00000010 #
b00000000000000000000000000000000 $
b0001 %
1.
0<
0=
#1018000
0.
#1020000
b00000000000000000000000000000001 $
b0111 %
1.
1<
1=
#1022000
0.
#1024000
b00000000000000000000000000000010 $
1.
#1026000
0.
#1028000
b00000000000000000000000000000011 $
1.
#1030000
0.
#1032000
b00000000000000000000000000000100 $
1.
#1034000
0.
#1036000
b00000000000000000000000000000101 $
1.
#1038000
0.
#1040000
b00000000000000000000000000000110 $
1.
#1042000
0.
#1044000
b00000000000000000000000000000111 $
1.
#1046000
0.
#1048000
b00000000000000000000000000001000 $
1.
#1050000
0.
#1052000
b00000000000000000000000000001001 $
1.
#1054000
0.
#1056000
b00000000000000000000000000001010 $
1.
#1058000
0.
#1060000
b00000000000000000000000000001011 $
1.
#1062000
0.
#1064000
b00000011 #
b00000000000000000000000000000000 $
b0001 %
1.
0<
0=
#1066000
0.
#1068000
b00000000000000000000000000000001 $
b0111 %
1.
1<
1=
#1070000
0.
#1072000
b00000000000000000000000000000010 $
1.
#1074000
0.
#1076000
b00000000000000000000000000000011 $
1.
#1078000
0.
#1080000
b00000000000000000000000000000100 $
1.
#1082000
0.
#1084000
b00000000000000000000000000000101 $
1.
#1086000
0.
#1088000
b00000000000000000000000000000110 $
1.
#1090000
0.
#1092000
b00000000000000000000000000000111 $
1.
#1094000
0.
#1096000
b00000000000000000000000000001000 $
1.
#1098000
0.
#1100000
b00000000000000000000000000001001 $
1.
#1102000
0.
#1104000
b00000000000000000000000000001010 $
1.
#1106000
0.
#1108000
b00000000000000000000000000001011 $
1.
#1110000
0.
#1112000
b00001011 #
b00000000000000000000000000000000 $
b0000 %
1.
0;
0<
0=
b0000000110000 >
#1114000
1-
0.
b11111111 3
#1116000
b00000000000000000000000000000001 $
b0111 %
1.
1;
1<
1=
b0000000000000 >
#1118000
0.
#1120000
b00000000000000000000000000000010 $
1.
#1122000
0.
#1124000
b00000100 #
b00000000000000000000000000000000 $
b0011 %
1.
0<
#1126000
0.
#1128000
b00000101 #
b0111 %
1.
1<
#1130000
0.
#1132000
1.
#1134000
0.
#1136000
1.
#1138000
0.
#1140000
1.
#1142000
0.
#1144000
1.
#1146000
0.
#1148000
1.
#1150000
0.
#1152000
1.
#1154000
0.
#1156000
1.
#1158000
0.
#1160000
1.
#1162000
0.
#1164000
1.
#1166000
0.
#1168000
1.
#1170000
0.
#1172000
1.
#1174000
0.
#1176000
1.
#1178000
0.
#1180000
1.
#1182000
0.
#1184000
1.
#1186000
0.
#1188000
1.
#1190000
0.
#1192000
1.
#1194000
0.
#1196000
1.
#1198000
0.
#1200000
1.
#1202000
0.
#1204000
b00001010 #
b00000000000000000000000001 +
1.
10
#1206000
0.
#1208000
b00000000000000000000000000000001 $
1.
#1210000
0.
#1212000
b00000000000000000000000000000010 $
1.
#1214000
0.
#1216000
b00000111 #
b00000000000000000000000000000000 $
b0010 %
1.
0;
0<
b0010000000000 >
b11 @
#1218000
0.
#1220000
b00000000000000000000000000000001 $
b0111 %
1.
1;
1<
b0000000000000 >
#1222000
0.
#1224000
b00000000000000000000000000000010 $
1.
#1226000
0.
#1228000
b00001001 #
b00000000000000000000000000000000 $
b0011 %
b00000000000000000000000000 &
1.
0<
#1230000
0.
#1232000
b00000000000000000000000000000001 $
b0111 %
1.
1<
#1234000
0.
#1236000
b00000000000000000000000000000010 $
1.
#1238000
0.
#1240000
b00000101 #
b00000000000000000000000000000000 $
b0100 %
b00000000000000000000000001 (
b01 ,
1.
0;
0=
b0010000000001 >
b00 @
b1111111100000000 A
#1242000
0.
#1244000
b00000000000000000000000010 (
b00000000000000000000000010 +
b10 ,
1.
b00000000000000000000000010 5
b0010000000010 >
b1111111111111111 A
#1246000
0.
#1248000
b00001000 #
b0111 %
b01 *
b00000000000000000000000001 +
1.
b00000000000000000111100001 5
1;
1=
b0000000000000 >
#1250000
0.
#1252000
b00000000000000000000000000000001 $
1.
#1254000
0.
#1256000
b00001001 #
b00000000000000000000000000000000 $
b0011 %
b01 '
1.
0<
b01 ?
#1258000
0.
#1260000
b00000000000000000000000000000001 $
b0111 %
1.
1<
b00 ?
#1262000
0.
#1264000
b00000000000000000000000000000010 $
1.
#1266000
0.
#1268000
b00000101 #
b00000000000000000000000000000000 $
b0100 %
b00000000000000000000000001 (
b01 ,
1.
0;
0=
b0010000000001 >
b01 ?
#1270000
0.
#1272000
b00000000000000000000000010 (
b00000000000000000000000010 +
b10 ,
1.
b00000000000000000111100010 5
b0010000000010 >
#1274000
0.
#1276000
b00001000 #
b0111 %
b10 *
b00000000000000000000000001 +
1.
b00000000000000001111000001 5
1;
1=
b0000000000000 >
b00 ?
#1278000
0.
#1280000
b00000000000000000000000000000001 $
1.
#1282000
0.
#1284000
b00001001 #
b00000000000000000000000000000000 $
b0011 %
b10 '
1.
0<
b10 ?
#1286000
0.
#1288000
b00000000000000000000000000000001 $
b0111 %
1.
1<
b00 ?
#1290000
0.
#1292000
b00000000000000000000000000000010 $
1.
b00000000000000001111000010 5
#1294000
0.
#1296000
b00000101 #
b00000000000000000000000000000000 $
b0100 %
b00000000000000000000000001 (
b01 ,
1.
0;
0=
b0010000000001 >
b10 ?
#1298000
0.
#1300000
b00000000000000000000000010 (
b00000000000000000000000010 +
b10 ,
1.
b0010000000010 >
