Componets/MIPI-CSI-Transciever/MIPI_Reciever(IDDR1)/blinky.vcd
$version Generated by VerilatedVcd $end
$date Sun Mar 26 22:25:11 2023
 $end
$timescale   1ps $end

 $scope module TOP $end
  $var wire 32 a adress_out [31:0] $end
  $var wire 32 i cX [31:0] $end
  $var wire 32 j cY [31:0] $end
  $var wire 32 ` data_o [31:0] $end
  $var wire  1 c debug0 $end
  $var wire  1 d debug1 $end
  $var wire  1 f debug2 $end
  $var wire  1 e debug3 $end
  $var wire  1 X lane0_d $end
  $var wire  1 ] lane0_n $end
  $var wire  1 \ lane0_p $end
  $var wire  1 [ lane1_d $end
  $var wire  1 _ lane1_n $end
  $var wire  1 ^ lane1_p $end
  $var wire  1 Y mipi_clk $end
  $var wire  1 Z mipi_clk_8 $end
  $var wire  1 b ram_clk $end
  $var wire  1 h rec_data_o $end
  $var wire  1 W reset $end
  $var wire  1 V sys_clk $end
  $var wire  1 g termination $end
  $scope module MIPI_Reciever $end
   $var wire 32 a adress_out [31:0] $end
   $var wire  8 M byte_0 [7:0] $end
   $var wire  8 N byte_1 [7:0] $end
   $var wire  8 ) byte_o_0 [7:0] $end
   $var wire  8 * byte_o_1 [7:0] $end
   $var wire 32 i cX [31:0] $end
   $var wire 32 j cY [31:0] $end
   $var wire 32 A data [31:0] $end
   $var wire 32 ` data_o [31:0] $end
   $var wire  1 c debug0 $end
   $var wire  1 d debug1 $end
   $var wire  1 f debug2 $end
   $var wire  1 e debug3 $end
   $var wire  1 z even $end
   $var wire 32 u iddr_ratio [31:0] $end
   $var wire  1 X lane0_d $end
   $var wire  1 ] lane0_n $end
   $var wire  1 \ lane0_p $end
   $var wire  8 v lane0byte [7:0] $end
   $var wire  1 [ lane1_d $end
   $var wire  1 _ lane1_n $end
   $var wire  1 ^ lane1_p $end
   $var wire  8 w lane1byte [7:0] $end
   $var wire  1 Y mipi_clk $end
   $var wire  1 Z mipi_clk_8 $end
   $var wire 32 t mipi_frec [31:0] $end
   $var wire  2 x ov_fl_0 [1:0] $end
   $var wire  2 y ov_fl_1 [1:0] $end
   $var wire  2 & q_o_0 [1:0] $end
   $var wire  2 ' q_o_1 [1:0] $end
   $var wire  1 b ram_clk $end
   $var wire  1 k rec_data $end
   $var wire  1 h rec_data_o $end
   $var wire  1 W reset $end
   $var wire  1 O stop_clk $end
   $var wire  1 L sync $end
   $var wire  1 # sync_mipi_clk $end
   $var wire  1 ( sync_mipi_clk_2 $end
   $var wire  1 l sync_mipi_clk_4 $end
   $var wire  1 4 sync_mipi_clk_8 $end
   $var wire  1 V sys_clk $end
   $var wire  1 g termination $end
   $var wire  6 B type_w [5:0] $end
   $var wire  1 m valid $end
   $var wire 16 C wordcount [15:0] $end
   $scope module BA0 $end
    $var wire  8 ) byte_o [7:0] $end
    $var wire  8 ) byte_r [7:0] $end
    $var wire  1 # mipi_clk $end
    $var wire  2 & q_o [1:0] $end
    $var wire  1 W reset $end
    $var wire  1 O stop $end
   $upscope $end
   $scope module BA1 $end
    $var wire  8 * byte_o [7:0] $end
    $var wire  8 * byte_r [7:0] $end
    $var wire  1 # mipi_clk $end
    $var wire  2 ' q_o [1:0] $end
    $var wire  1 W reset $end
    $var wire  1 O stop $end
   $upscope $end
   $scope module BAL0 $end
    $var wire  8 ) byte_i [7:0] $end
    $var wire  8 M byte_o [7:0] $end
    $var wire  8 M byte_o_r [7:0] $end
    $var wire  8 2 counter [7:0] $end
    $var wire  1 # mipi_clk $end
    $var wire  1 W reset $end
    $var wire  1 O stop $end
    $var wire  1 L sync $end
   $upscope $end
   $scope module BAL1 $end
    $var wire  8 * byte_i [7:0] $end
    $var wire  8 N byte_o [7:0] $end
    $var wire  8 N byte_o_r [7:0] $end
    $var wire  8 3 counter [7:0] $end
    $var wire  1 # mipi_clk $end
    $var wire  1 W reset $end
    $var wire  1 O stop $end
    $var wire  1 L sync $end
   $upscope $end
   $scope module DE $end
    $var wire  8 M byte_in0 [7:0] $end
    $var wire  8 N byte_in1 [7:0] $end
    $var wire 24 J correction [23:0] $end
    $var wire 32 G counter [31:0] $end
    $var wire 32 A data [31:0] $end
    $var wire 32 A data_r [31:0] $end
    $var wire  8 H ecc [7:0] $end
    $var wire  1 z even $end
    $var wire  1 l mipi_clk_4 $end
    $var wire 32 D out_r [31:0] $end
    $var wire 32 E out_r_old [31:0] $end
    $var wire 32 D regheader [31:0] $end
    $var wire 32 K regheader_correct [31:0] $end
    $var wire  1 W reset $end
    $var wire  1 F start $end
    $var wire  1 O stop $end
    $var wire  1 L sync $end
    $var wire  8 I syndrom [7:0] $end
    $var wire  6 B type_o [5:0] $end
    $var wire  6 B type_o_r [5:0] $end
    $var wire  1 m valid $end
    $var wire  1 6 valid_r $end
    $var wire 16 C wordcount [15:0] $end
    $var wire 16 C wordcount_r [15:0] $end
   $upscope $end
   $scope module Prot $end
    $var wire 32 a adress_o [31:0] $end
    $var wire 16 @ c [15:0] $end
    $var wire 32 i cX [31:0] $end
    $var wire 32 > cX_r [31:0] $end
    $var wire 32 j cY [31:0] $end
    $var wire 32 ? cY_r [31:0] $end
    $var wire 16 s c_calk [15:0] $end
    $var wire 32 ; count_val [31:0] $end
    $var wire 32 : counter [31:0] $end
    $var wire 32 = counter_addr [31:0] $end
    $var wire 32 A d [31:0] $end
    $var wire 32 A data [31:0] $end
    $var wire 32 ` data_o [31:0] $end
    $var wire 32 < data_o_r [31:0] $end
    $var wire  1 f debug $end
    $var wire  1 e debug1 $end
    $var wire  1 4 mipi_clk_8 $end
    $var wire  1 k rec_data $end
    $var wire  1 7 rec_data_r $end
    $var wire  1 W reset $end
    $var wire  1 8 state $end
    $var wire  1 O stop $end
    $var wire  6 B type_i [5:0] $end
    $var wire  1 m valid $end
    $var wire  1 9 valid_old $end
    $var wire 16 C wordcount [15:0] $end
   $upscope $end
   $scope module RxFSM $end
    $var wire  8 %! DATA [7:0] $end
    $var wire  8 $! HEADER [7:0] $end
    $var wire  8 "! LP00 [7:0] $end
    $var wire  8 !! LP01 [7:0] $end
    $var wire  8 ~ LP11 [7:0] $end
    $var wire  8 #! SYNC [7:0] $end
    $var wire  8 } TIMEOUT [7:0] $end
    $var wire 32 (! Tdterm [31:0] $end
    $var wire 32 )! Thssettle [31:0] $end
    $var wire 32 '! Timeout [31:0] $end
    $var wire 32 &! Tlpx [31:0] $end
    $var wire  1 V clk100MHz $end
    $var wire  1 c debug0 $end
    $var wire  1 R debug0_r $end
    $var wire  1 | debug1 $end
    $var wire  1 | debug1_r $end
    $var wire  1 ] lane0_n $end
    $var wire  1 \ lane0_p $end
    $var wire  1 _ lane1_n $end
    $var wire  1 ^ lane1_p $end
    $var wire 32 t mipi_frec [31:0] $end
    $var wire  1 k rec_data $end
    $var wire  1 W reset $end
    $var wire  8 P state_mipi [7:0] $end
    $var wire  1 O stop_rx $end
    $var wire  1 O stop_rx_r $end
    $var wire  1 { stop_tran $end
    $var wire  1 g term $end
    $var wire  1 Q term_r $end
    $var wire 32 U timer_hs [31:0] $end
    $var wire 32 T timer_term [31:0] $end
    $var wire 32 S timer_tou [31:0] $end
   $upscope $end
   $scope module SYNC $end
    $var wire  1 Y ECLKI $end
    $var wire  1 # ECLKO $end
    $var wire  1 O STOP $end
    $var wire  1 $ eclki_r0 $end
    $var wire  1 % eclki_r1 $end
    $var wire  1 # eclki_r2 $end
   $upscope $end
   $scope module div2 $end
    $var wire  1 ( CDIVX $end
    $var wire  1 # CLKI $end
    $var wire  1 W RST $end
    $var wire  8 + counter [7:0] $end
   $upscope $end
   $scope module div4 $end
    $var wire  1 l CDIVX $end
    $var wire  1 ( CLKI $end
    $var wire  1 W RST $end
    $var wire  8 n counter [7:0] $end
   $upscope $end
   $scope module div8 $end
    $var wire  1 4 CDIVX $end
    $var wire  1 l CLKI $end
    $var wire  1 W RST $end
    $var wire  8 5 counter [7:0] $end
   $upscope $end
   $scope module lane0 $end
    $var wire  8 , byte_r [7:0] $end
    $var wire  2 o ddr [1:0] $end
    $var wire  1 X lane $end
    $var wire  2 & q_o [1:0] $end
    $var wire  2 & q_o_r [1:0] $end
    $var wire  1 W reset $end
    $var wire  1 O stop $end
    $var wire  1 L sync $end
    $var wire  1 # sync_mipi_clk $end
    $var wire  1 - sync_r $end
    $scope module l0 $end
     $var wire  1 X D $end
     $var wire  1 . Q0 $end
     $var wire  1 . Q0_r $end
     $var wire  1 p Q1 $end
     $var wire  1 p Q1_r $end
     $var wire  1 *! RST $end
     $var wire  1 # SCLK $end
    $upscope $end
   $upscope $end
   $scope module lane1 $end
    $var wire  8 / byte_r [7:0] $end
    $var wire  2 q ddr [1:0] $end
    $var wire  1 [ lane $end
    $var wire  2 ' q_o [1:0] $end
    $var wire  2 ' q_o_r [1:0] $end
    $var wire  1 W reset $end
    $var wire  1 O stop $end
    $var wire  1 L sync $end
    $var wire  1 # sync_mipi_clk $end
    $var wire  1 0 sync_r $end
    $scope module l0 $end
     $var wire  1 [ D $end
     $var wire  1 1 Q0 $end
     $var wire  1 1 Q0_r $end
     $var wire  1 r Q1 $end
     $var wire  1 r Q1_r $end
     $var wire  1 *! RST $end
     $var wire  1 # SCLK $end
    $upscope $end
   $upscope $end
  $upscope $end
 $upscope $end
$enddefinitions $end


#5000
0#
1$
0%
b00 &
b00 '
0(
b00000000 )
b00000000 *
b00000000 +
b00000000 ,
0-
0.
b00000000 /
00
01
b00000000 2
b00000000 3
04
b00000000 5
06
07
08
09
b00000000000000000000000000000000 :
b00000000000000000000000000000000 ;
b00000000000000000000000000000000 <
b00000000000000000000000000000000 =
b00000000000000000000000000000000 >
b00000000000000000000000000000000 ?
b1111111111111111 @
b00000000000000000000000000000000 A
b000000 B
b0000000000000000 C
b00000000000000000000000000000000 D
b00000000000000000000000000000000 E
0F
b00000000000000000000000000000000 G
b00000000 H
b00000000 I
b000000000000000000000000 J
b00000000000000000000000000000000 K
0L
b00000000 M
b00000000 N
1O
b00000001 P
0Q
0R
b00000000000000000000000000000000 S
b00000000000000000000000000000000 T
b00000000000000000000000000000000 U
1V
0W
0X
1Y
0Z
0[
1\
1]
1^
1_
b00000000000000000000000000000000 `
b00000000000000000000000000000000 a
0b
0c
0d
0e
0f
0g
0h
b00000000000000000000000000000000 i
b00000000000000000000000000000000 j
0k
0l
0m
b00000000 n
b00 o
0p
b00 q
0r
b0000001100100001 s
b00000000000000000000000101011110 t
b00000000000000000000000000000100 u
b00000000 v
b00000000 w
b00 x
b00 y
0z
0{
0|
b00000000 }
b00000001 ~
b00000010 !!
b00000011 "!
b00000100 #!
b00000101 $!
b00000110 %!
b00000000000000000000000000000010 &!
b00000000000000000000000110000001 '!
b00000000000000000000000000000000 (!
b00000000000000000000000000000001 )!
0*!
#10000
0$
1%
0Y
#15000
1#
0%
1(
b00000001 +
14
b00000001 5
1Y
1b
1l
b00000001 n
#20000
0#
0Y
#25000
1Y
#30000
0Y
#35000
1Y
#40000
0Y
#45000
0V
1Y
#50000
0Y
#55000
1Y
0\
0^
#60000
0Y
#65000
1Y
#70000
0Y
#75000
1Y
#80000
0Y
#85000
b00000010 P
1V
1Y
#90000
0Y
#95000
1Y
#100000
0Y
#105000
1Y
0]
0_
#110000
0Y
#115000
1Y
#120000
0Y
#125000
0V
1Y
#130000
0Y
#135000
1Y
#140000
0Y
#145000
1Y
#150000
0Y
#155000
1Y
#160000
0Y
#165000
b00000011 P
b00000000000000000000000000000001 S
b00000000000000000000000000000001 T
1V
1Y
#170000
0Y
#175000
1Y
#180000
0Y
#185000
1Y
#190000
0Y
#195000
1Y
#200000
0Y
#205000
0V
1Y
#210000
0Y
#215000
1Y
#220000
0Y
#225000
1Y
#230000
0Y
#235000
1Y
#240000
0Y
#245000
1Q
b00000000000000000000000000000010 S
b00000000000000000000000000000010 T
b00000000000000000000000000000001 U
1V
1Y
1g
#250000
0Y
#255000
1Y
#260000
0Y
#265000
1Y
#270000
0Y
#275000
1Y
#280000
0Y
#285000
0V
1Y
#290000
0Y
#295000
1Y
#300000
0Y
#305000
1Y
#310000
0Y
#315000
1Y
#320000
0Y
#325000
0O
b00000100 P
b00000000000000000000000000000011 S
b00000000000000000000000000000011 T
b00000000000000000000000000000010 U
1V
1Y
#330000
0Y
#335000
1$
1Y
#340000
0$
1%
0Y
#345000
1#
1$
0%
0(
b00000010 +
1Y
#350000
0#
0$
1%
0Y
#355000
1#
1$
0%
1(
b00000011 +
1Y
0l
b00000010 n
#360000
0#
0$
1%
0Y
#365000
1#
1$
0%
0(
b00000100 +
0V
1Y
#370000
0#
0$
1%
0Y
#375000
1#
1$
0%
1(
b00000101 +
04
b00000010 5
1Y
0b
1l
b00000011 n
#380000
0#
0$
1%
0Y
#385000
1#
1$
0%
0(
b00000110 +
1Y
#390000
0#
0$
1%
0Y
#395000
1#
1$
0%
1(
b00000111 +
1Y
0l
b00000100 n
#400000
0#
0$
1%
0Y
#405000
1#
1$
0%
0(
b00001000 +
1R
b00000000000000000000000000000100 S
1V
1Y
1c
#410000
0#
0$
1%
0Y
#415000
1#
1$
0%
1(
b00001001 +
14
b00000011 5
1Y
1b
1l
b00000101 n
#420000
0#
0$
1%
0Y
#425000
1#
1$
0%
0(
b00001010 +
1Y
#430000
0#
0$
1%
0Y
#435000
1#
1$
0%
1(
b00001011 +
1Y
0l
b00000110 n
#440000
0#
0$
1%
0Y
#445000
1#
1$
0%
0(
b00001100 +
0V
1Y
#450000
0#
0$
1%
0Y
#455000
1#
1$
0%
1(
b00001101 +
04
b00000100 5
1Y
0b
1l
b00000111 n
#460000
0#
0$
1%
0Y
#465000
1#
1$
0%
0(
b00001110 +
1Y
#470000
0#
0$
1%
0Y
#475000
1#
1$
0%
1(
b00001111 +
1Y
0l
b00001000 n
#480000
0#
0$
1%
0Y
#485000
1#
1$
0%
0(
b00010000 +
b00000000000000000000000000000101 S
1V
1Y
#490000
0#
0$
1%
0Y
#495000
1#
1$
0%
1(
b00010001 +
14
b00000101 5
1Y
1b
1l
b00001001 n
#500000
0#
0$
1%
0Y
#505000
1#
1$
0%
0(
b00010010 +
1Y
#510000
0#
0$
1%
0Y
#515000
1#
1$
0%
1(
b00010011 +
1Y
0l
b00001010 n
#520000
0#
0$
1%
0Y
#525000
1#
1$
0%
0(
b00010100 +
0V
1Y
#530000
0#
0$
1%
0Y
#535000
1#
1$
0%
1(
b00010101 +
04
b00000110 5
1Y
0b
1l
b00001011 n
#540000
0#
0$
1%
0Y
#545000
1#
1$
0%
0(
b00010110 +
1Y
#550000
0#
0$
1%
0Y
#555000
1#
1$
0%
1(
b00010111 +
1Y
0l
b00001100 n
#560000
0#
0$
1%
0Y
#565000
1#
1$
0%
0(
b00011000 +
b00000000000000000000000000000110 S
1V
1Y
#570000
0#
0$
1%
0Y
#575000
1#
1$
0%
1(
b00011001 +
14
b00000111 5
1Y
1b
1l
b00001101 n
#580000
0#
0$
1%
0Y
#585000
1#
1$
0%
0(
b00011010 +
1Y
#590000
0#
0$
1%
0Y
#595000
1#
1$
0%
1(
b00011011 +
1Y
0l
b00001110 n
#600000
0#
0$
1%
0Y
#605000
1#
1$
0%
0(
b00011100 +
0V
1Y
#610000
0#
0$
1%
0Y
#615000
1#
1$
0%
1(
b00011101 +
04
b00001000 5
1Y
0b
1l
b00001111 n
#620000
0#
0$
1%
0Y
#625000
1#
1$
0%
0(
b00011110 +
1Y
#630000
0#
0$
1%
0Y
#635000
1#
1$
0%
1(
b00011111 +
1Y
0l
b00010000 n
#640000
0#
0$
1%
0Y
#645000
1#
1$
0%
0(
b00100000 +
b00000000000000000000000000000111 S
1V
1Y
#650000
0#
0$
1%
0Y
#655000
1#
1$
0%
1(
b00100001 +
14
b00001001 5
1Y
1b
1l
b00010001 n
#660000
0#
0$
1%
0Y
#665000
1#
1$
0%
0(
b00100010 +
1Y
#670000
0#
0$
1%
0Y
#675000
1#
1$
0%
1(
b00100011 +
1Y
0l
b00010010 n
#680000
0#
0$
1%
0Y
#685000
1#
1$
0%
0(
b00100100 +
0V
1Y
#690000
0#
0$
1%
0Y
#695000
1#
1$
0%
1(
b00100101 +
04
b00001010 5
1Y
0b
1l
b00010011 n
#700000
0#
0$
1%
0Y
#705000
1#
1$
0%
0(
b00100110 +
1Y
#710000
0#
0$
1%
0Y
#715000
1#
1$
0%
1(
b00100111 +
1Y
0l
b00010100 n
#720000
0#
0$
1%
0Y
#725000
1#
1$
0%
0(
b00101000 +
b00000000000000000000000000001000 S
1V
1Y
#730000
0#
0$
1%
0Y
#735000
1#
1$
0%
1(
b00101001 +
14
b00001011 5
1Y
1b
1l
b00010101 n
#740000
0#
0$
1%
0Y
#745000
1#
1$
0%
0(
b00101010 +
1Y
#750000
0#
0$
1%
0Y
#755000
1#
1$
0%
1(
b00101011 +
1Y
0l
b00010110 n
#760000
0#
0$
1%
0Y
#765000
1#
1$
0%
0(
b00101100 +
0V
1Y
#770000
0#
0$
1%
0Y
#775000
1#
1$
0%
1(
b00101101 +
04
b00001100 5
1Y
0b
1l
b00010111 n
#780000
0#
0$
1%
0Y
#785000
1#
1$
0%
0(
b00101110 +
1Y
#790000
0#
0$
1%
0Y
#795000
1#
1$
0%
1(
b00101111 +
1Y
0l
b00011000 n
#800000
0#
0$
1%
0Y
#805000
1#
1$
0%
0(
b00110000 +
b00000000000000000000000000001001 S
1V
1Y
#810000
0#
0$
1%
0Y
#815000
1#
1$
0%
1(
b00110001 +
14
b00001101 5
1Y
1b
1l
b00011001 n
#820000
0#
0$
1%
0Y
#825000
1#
1$
0%
0(
b00110010 +
1Y
#830000
0#
0$
1%
0Y
#835000
1#
1$
0%
1(
b00110011 +
1Y
0l
b00011010 n
#840000
0#
0$
1%
0Y
#845000
1#
1$
0%
0(
b00110100 +
0V
1Y
#850000
0#
0$
1%
0Y
#855000
1#
1$
0%
1(
b00110101 +
04
b00001110 5
1Y
0b
1l
b00011011 n
#860000
0#
0$
1%
0Y
#865000
1#
1$
0%
0(
b00110110 +
1Y
#870000
0#
0$
1%
0Y
#875000
1#
1$
0%
1(
b00110111 +
1Y
0l
b00011100 n
#880000
0#
0$
1%
0Y
#885000
1#
1$
0%
0(
b00111000 +
b00000000000000000000000000001010 S
1V
1Y
#890000
0#
0$
1%
0Y
#895000
1#
1$
0%
1(
b00111001 +
14
b00001111 5
1Y
1b
1l
b00011101 n
#900000
0#
0$
1%
0Y
#905000
1#
1$
0%
0(
b00111010 +
1Y
#910000
0#
0$
1%
0Y
#915000
1#
1$
0%
1(
b00111011 +
1Y
0l
b00011110 n
#920000
0#
0$
1%
0Y
#925000
1#
1$
0%
0(
b00111100 +
0V
1Y
#930000
0#
0$
1%
0Y
#935000
1#
1$
0%
1(
b00111101 +
04
b00010000 5
1Y
0b
1l
b00011111 n
#940000
0#
0$
1%
0Y
#945000
1#
1$
0%
0(
b00111110 +
1Y
#950000
0#
0$
1%
0Y
#955000
1#
1$
0%
1(
b00111111 +
1Y
0l
b00100000 n
#960000
0#
0$
1%
0Y
#965000
1#
1$
0%
0(
b01000000 +
b00000000000000000000000000001011 S
1V
1Y
#970000
0#
0$
1%
0Y
#975000
1#
1$
0%
1(
b01000001 +
14
b00010001 5
1Y
1b
1l
b00100001 n
#980000
0#
0$
1%
0Y
#985000
1#
1$
0%
0(
b01000010 +
1Y
#990000
0#
0$
1%
0Y
#995000
1#
1$
0%
1(
b01000011 +
1Y
0l
b00100010 n
#1000000
0#
0$
1%
0Y
#1005000
1#
1$
0%
0(
b01000100 +
0V
1Y
#1010000
0#
0$
1%
0Y
#1015000
1#
1$
0%
1(
b01000101 +
04
b00010010 5
1Y
0b
1l
b00100011 n
#1020000
0#
0$
1%
1X
0Y
1[
b10 o
1p
b10 q
1r
#1025000
1#
1$
0%
b10 &
b10 '
0(
b01000110 +
b10000000 ,
1.
b10000000 /
11
1Y
b11 o
b11 q
#1030000
0#
0$
1%
0Y
#1035000
1#
1$
0%
b11 &
b11 '
1(
b10000000 )
b10000000 *
b01000111 +
b11100000 ,
0.
b11100000 /
01
0X
1Y
0[
0l
b00100100 n
b10 o
b10 q
#1040000
0#
0$
1%
1X
0Y
1[
#1045000
1#
1$
0%
b10 &
b10 '
0(
b11100000 )
b11100000 *
b01001000 +
b10111000 ,
b10111000 /
b00000000000000000000000000001100 S
1V
0X
1Y
0[
#1050000
0#
0$
1%
1X
0Y
b00 q
0r
#1055000
1#
1$
0%
b00 '
1(
b10111000 )
b10111000 *
b01001001 +
b10101110 ,
1-
b00101110 /
10
14
b00010011 5
1L
0X
1Y
1b
1l
b00100101 n
#1060000
0#
0$
1%
1X
0Y
#1065000
1#
1$
0%
0(
b10101110 )
b00101110 *
b01001010 +
b10101011 ,
b00001011 /
b00000001 2
b00000001 3
0X
1Y
#1070000
0#
0$
1%
1X
0Y
#1075000
1#
1$
0%
1(
b10101011 )
b00001011 *
b01001011 +
b10101010 ,
b00000010 /
b00000010 2
b00000010 3
0X
1Y
0l
b00100110 n
#1080000
0#
0$
1%
0Y
1[
b00 o
0p
b10 q
1r
#1085000
1#
1$
0%
b00 &
b10 '
0(
b10101010 )
b00000010 *
b01001100 +
b00101010 ,
b10000000 /
b00000011 2
b00000011 3
0V
1Y
0[
#1090000
0#
0$
1%
1X
0Y
1[
b10 o
1p
#1095000
1#
1$
0%
b10 &
1(
b00101010 )
b10000000 *
b01001101 +
b10001010 ,
b10100000 /
11
b00000100 2
b00000100 3
04
b00010100 5
0X
1Y
0b
1l
b00100111 n
b11 q
#1100000
0#
0$
1%
0Y
b00 o
0p
#1105000
1#
1$
0%
b00 &
b11 '
0(
b10001010 )
b10100000 *
b01001110 +
b00100010 ,
b11101000 /
01
b00000001 2
b00000001 3
b00101010 M
b10000000 N
1Y
0[
b10 q
#1110000
0#
0$
1%
0Y
b00 q
0r
#1115000
1#
1$
0%
b00 '
1(
b00100010 )
b11101000 *
b01001111 +
b00001000 ,
b00111010 /
b00000010 2
b00000010 3
1Y
0l
b00101000 n
#1120000
0#
0$
1%
0Y
#1125000
1#
1$
0%
0(
b00001000 )
b00111010 *
b01010000 +
b00000010 ,
1.
b00001110 /
b00000011 2
b00000011 3
b00000000000000000000000000001101 S
1V
1X
1Y
b01 o
#1130000
0#
0$
1%
0Y
b11 o
1p
#1135000
1#
1$
0%
b11 &
1(
b00000010 )
b00001110 *
b01010001 +
b11000000 ,
b00000011 /
b00000100 2
b00000100 3
14
b00010101 5
b10000000001010100000000000000000 D
b00100101 H
b10100101 I
b10000000001010100000000000000000 K
1Y
1b
1l
b00101001 n
#1140000
0#
0$
1%
0Y
#1145000
1#
1$
0%
0(
b11000000 )
b00000011 *
b01010010 +
b11110000 ,
b00000000 /
b00000001 2
b00000001 3
b00000010 M
b00001110 N
1Y
#1150000
0#
0$
1%
0Y
#1155000
1#
1$
0%
1(
b11110000 )
b00000000 *
b01010011 +
b11111100 ,
b00000010 2
b00000010 3
1Y
0l
b00101010 n
#1160000
0#
0$
1%
0Y
#1165000
1#
1$
0%
0(
b11111100 )
b01010100 +
b11111111 ,
0.
b00000011 2
b00000011 3
0V
0X
1Y
b10 o
#1170000
0#
0$
1%
0Y
1[
b00 o
0p
b10 q
1r
#1175000
1#
1$
0%
b00 &
b10 '
1(
b11111111 )
b01010101 +
b00111111 ,
b10000000 /
b00000100 2
b00000100 3
04
b00010110 5
b00001110000000101000000000101010 D
b10000000001010100000000000000000 E
b00001110 H
b00000000 I
b00001110000000101000000000101010 K
1Y
0[
0b
1l
b00101011 n
#1180000
0#
0$
1%
0Y
b00 q
0r
#1185000
1#
1$
0%
b00 '
0(
b00111111 )
b10000000 *
b01010110 +
b00001111 ,
b00100000 /
b00000001 2
b00000001 3
b11111111 M
b00000000 N
1Y
#1190000
0#
0$
1%
0Y
#1195000
1#
1$
0%
1(
b00001111 )
b00100000 *
b01010111 +
b00000011 ,
b00001000 /
b00000010 2
b00000010 3
1Y
0l
b00101100 n
#1200000
0#
0$
1%
0Y
#1205000
1#
1$
0%
0(
b00000011 )
b00001000 *
b01011000 +
b00000000 ,
1.
b00000010 /
b00000011 2
b00000011 3
b00000000000000000000000000001110 S
1V
1X
1Y
b01 o
#1210000
0#
0$
1%
0X
0Y
#1215000
1#
1$
0%
b01 &
1(
b00000000 )
b00000010 *
b01011001 +
b01000000 ,
0.
b00000000 /
11
b00000100 2
b00000100 3
14
b00010111 5
16
b101010 B
b0000001010000000 C
b00000000111111110000111000000010 D
b00001110000000101000000000101010 E
1F
b00000000000000000000000000000001 G
b00100010 H
b00100010 I
b00000000111111110000111000000010 K
1Y
1[
1b
1l
1m
b00101101 n
b00 o
b01 q
#1220000
0#
0$
1%
1X
0Y
b10 o
1p
b11 q
1r
#1225000
1#
1$
0%
b10 &
b11 '
0(
b01000000 )
b00000000 *
b01011010 +
b10010000 ,
1.
b11000000 /
b00000001 2
b00000001 3
b00000000 M
b00000010 N
1Y
b11 o
#1230000
0#
0$
1%
0Y
0[
b01 q
0r
#1235000
1#
1$
0%
b11 &
b01 '
1(
b10010000 )
b11000000 *
b01011011 +
b11100100 ,
0.
b01110000 /
b00000010 2
b00000010 3
0X
1Y
1[
0l
b00101110 n
b10 o
#1240000
0#
0$
1%
1X
0Y
b11 q
1r
#1245000
1#
1$
0%
b10 &
b11 '
0(
b11100100 )
b01110000 *
b01011100 +
b10111001 ,
1.
b11011100 /
01
b00000011 2
b00000011 3
0V
1Y
0[
b11 o
b10 q
#1250000
0#
0$
1%
0Y
1[
#1255000
1#
1$
0%
b11 &
b10 '
1(
b10111001 )
b11011100 *
b01011101 +
b11101110 ,
0.
b10110111 /
b00000100 2
b00000100 3
04
b00011000 5
b00000010000000000000000011111111 D
b00000000111111110000111000000010 E
b00000000000000000000000000000010 G
b00000110 H
b00000100 I
b00000010000000000000000011111111 K
0X
1Y
0[
0b
1l
b00101111 n
b10 o
#1260000
0#
0$
1%
0Y
b00 o
0p
b00 q
0r
#1265000
1#
1$
0%
b00 &
b00 '
0(
b11101110 )
b10110111 *
b01011110 +
b00111011 ,
1.
b00101101 /
11
b00000001 2
b00000001 3
b10111001 M
b11011100 N
1X
1Y
1[
b01 o
b01 q
#1270000
0#
0$
1%
0Y
b11 o
1p
b11 q
1r
#1275000
1#
1$
0%
b11 &
b11 '
1(
b00111011 )
b00101101 *
b01011111 +
b11001110 ,
b11001011 /
b00000010 2
b00000010 3
1Y
0l
b00110000 n
#1280000
0#
0$
1%
0Y
0[
b01 q
0r
#1285000
1#
1$
0%
b01 '
0(
b11001110 )
b11001011 *
b01100000 +
b11110011 ,
b01110010 /
01
b00000011 2
b00000011 3
b00000000000000000000000000001111 S
1V
1Y
b00 q
#1290000
0#
0$
1%
0Y
#1295000
1#
1$
0%
b00 '
1(
b11110011 )
b01110010 *
b01100001 +
b11111100 ,
0.
b00011100 /
11
b00000100 2
b00000100 3
14
b00011001 5
18
19
b00000000000000000000000010100000 ;
b00000000000000000000001010000000 ?
b00000010000000000000000011111111 A
b11011100101110010000001000000000 D
b00000010000000000000000011111111 E
b00000000000000000000000000000001 G
b00011110 H
b11000010 I
b11011100101110010000001000000000 K
0X
1Y
1[
1b
b00000000000000000000001010000000 j
1l
b00110001 n
b10 o
b01 q
b1110010111100001 s
#1300000
0#
0$
1%
1X
0Y
0[
#1305000
1#
1$
0%
b10 &
b01 '
0(
b11111100 )
b00011100 *
b01100010 +
b10111111 ,
1.
b01000111 /
b00000001 2
b00000001 3
b11110011 M
b01110010 N
1Y
1[
b11 o
#1310000
0#
0$
1%
0Y
0[
#1315000
1#
1$
0%
b11 &
1(
b10111111 )
b01000111 *
b01100011 +
b11101111 ,
0.
b01010001 /
b00000010 2
b00000010 3
0X
1Y
1[
0l
b00110010 n
b10 o
#1320000
0#
0$
1%
1X
0Y
b11 q
1r
#1325000
1#
1$
0%
b10 &
b11 '
0(
b11101111 )
b01010001 *
b01100100 +
b10111011 ,
b11010100 /
01
b00000011 2
b00000011 3
0V
0X
1Y
0[
b10 q
#1330000
0#
0$
1%
0Y
1[
b00 o
0p
#1335000
1#
1$
0%
b00 &
b10 '
1(
b10111011 )
b11010100 *
b01100101 +
b00101110 ,
b10110101 /
b00000100 2
b00000100 3
04
b00011010 5
b01110010111100111101110010111001 D
b11011100101110010000001000000000 E
b00000000000000000000000000000010 G
b00001111 H
b01111101 I
b01110010111100111101110010111001 K
1Y
0[
0b
1l
b00110011 n
#1340000
0#
0$
1%
1X
0Y
1[
b10 o
1p
#1345000
1#
1$
0%
b10 &
0(
b00101110 )
b10110101 *
b01100110 +
b10001011 ,
1.
b10101101 /
11
b00000001 2
b00000001 3
b10111011 M
b11010100 N
1Y
b11 o
b11 q
#1350000
0#
0$
1%
0Y
0[
b01 q
0r
#1355000
1#
1$
0%
b11 &
b01 '
1(
b10001011 )
b10101101 *
b01100111 +
b11100010 ,
0.
b01101011 /
b00000010 2
b00000010 3
0X
1Y
1[
0l
b00110100 n
b10 o
#1360000
0#
0$
1%
1X
0Y
0[
#1365000
1#
1$
0%
b10 &
0(
b11100010 )
b01101011 *
b01101000 +
b10111000 ,
b01011010 /
b00000011 2
b00000011 3
b00000000000000000000000000010000 S
1V
0X
1Y
1[
#1370000
0#
0$
1%
0Y
0[
b00 o
0p
