ULX3S_Projects/HDMI_Transciever_Test(640x480p)/blinky.vcd
$version Generated by VerilatedVcd $end
$date Mon Oct 31 14:19:26 2022
 $end
$timescale   1ps $end

 $scope module TOP $end
  $var wire  4 ? TMDSd [3:0] $end
  $var wire  7 = btn [6:0] $end
  $var wire  1 > clk_high $end
  $var wire  1 < pixclk $end
  $scope module HDMI_Transciever_Test $end
   $var wire  4 ? TMDSd [3:0] $end
   $var wire  1 C blue $end
   $var wire 10 # blue_r [9:0] $end
   $var wire  7 = btn [6:0] $end
   $var wire  1 > clk_high $end
   $var wire  8 ) cnt [7:0] $end
   $var wire  1 B green $end
   $var wire 10 $ green_r [9:0] $end
   $var wire  1 < pixclk $end
   $var wire  8 & ram_b [7:0] $end
   $var wire  8 ' ram_g [7:0] $end
   $var wire  8 ( ram_r [7:0] $end
   $var wire  1 A red $end
   $var wire 10 % red_r [9:0] $end
   $scope module HDMI $end
    $var wire  2 1 H_VSync_Ctr_0 [1:0] $end
    $var wire  2 Q H_VSync_Ctr_1 [1:0] $end
    $var wire  2 R H_VSync_Ctr_2 [1:0] $end
    $var wire 26 * addr [25:0] $end
    $var wire  1 C blue $end
    $var wire 10 + blue_r [9:0] $end
    $var wire  1 > clk_high $end
    $var wire  1 < clk_low $end
    $var wire  1 D clock $end
    $var wire  1 2 first $end
    $var wire  1 B green $end
    $var wire 10 , green_r [9:0] $end
    $var wire 32 . h [31:0] $end
    $var wire 32 H h_back_porch [31:0] $end
    $var wire 32 I h_blanking_total [31:0] $end
    $var wire 32 F h_front_porch [31:0] $end
    $var wire 32 E h_pixel [31:0] $end
    $var wire 32 G h_sync_widith [31:0] $end
    $var wire 32 J h_tot_pixel [31:0] $end
    $var wire 26 * ram_addr [25:0] $end
    $var wire  8 & ram_blue [7:0] $end
    $var wire  8 ' ram_green [7:0] $end
    $var wire  8 ( ram_red [7:0] $end
    $var wire  1 A red $end
    $var wire 10 - red_r [9:0] $end
    $var wire  1 @ reset $end
    $var wire  2 0 state [1:0] $end
    $var wire 32 / v [31:0] $end
    $var wire 32 N v_back_porch [31:0] $end
    $var wire 32 O v_blanking_total [31:0] $end
    $var wire 32 L v_front_porch [31:0] $end
    $var wire 32 K v_pixel [31:0] $end
    $var wire 32 M v_sync_widith [31:0] $end
    $var wire 32 P v_tot_pixel [31:0] $end
    $scope module encoder0 $end
     $var wire  2 1 H_VSync_Ctr [1:0] $end
     $var wire  4 S aux_data [3:0] $end
     $var wire  1 > clkhigh $end
     $var wire  1 < clklow $end
     $var wire 32 4 cnt [31:0] $end
     $var wire 32 5 cnt_old [31:0] $end
     $var wire  1 C data_o $end
     $var wire  8 & pix_data [7:0] $end
     $var wire 10 3 q_m [9:0] $end
     $var wire 10 + q_out [9:0] $end
     $var wire 10 + q_out1 [9:0] $end
     $var wire  1 @ reset $end
     $var wire  2 0 state [1:0] $end
    $upscope $end
    $scope module encoder1 $end
     $var wire  2 Q H_VSync_Ctr [1:0] $end
     $var wire  4 T aux_data [3:0] $end
     $var wire  1 > clkhigh $end
     $var wire  1 < clklow $end
     $var wire 32 7 cnt [31:0] $end
     $var wire 32 8 cnt_old [31:0] $end
     $var wire  1 B data_o $end
     $var wire  8 ' pix_data [7:0] $end
     $var wire 10 6 q_m [9:0] $end
     $var wire 10 , q_out [9:0] $end
     $var wire 10 , q_out1 [9:0] $end
     $var wire  1 @ reset $end
     $var wire  2 0 state [1:0] $end
    $upscope $end
    $scope module encoder2 $end
     $var wire  2 R H_VSync_Ctr [1:0] $end
     $var wire  4 U aux_data [3:0] $end
     $var wire  1 > clkhigh $end
     $var wire  1 < clklow $end
     $var wire 32 : cnt [31:0] $end
     $var wire 32 ; cnt_old [31:0] $end
     $var wire  1 A data_o $end
     $var wire  8 ( pix_data [7:0] $end
     $var wire 10 9 q_m [9:0] $end
     $var wire 10 - q_out [9:0] $end
     $var wire 10 - q_out1 [9:0] $end
     $var wire  1 @ reset $end
     $var wire  2 0 state [1:0] $end
    $upscope $end
   $upscope $end
  $upscope $end
 $upscope $end
$enddefinitions $end


#10
b0000000000 #
b0000000000 $
b0000000000 %
b00000000 &
b00000000 '
b00000000 (
b00000001 )
b00000000000000000000000000 *
b1101010100 +
b1101010100 ,
b1101010100 -
b00000000000000000000000000000000 .
b00000000000000000000000000000000 /
b00 0
b00 1
12
b0000000000 3
b00000000000000000000000000000000 4
b00000000000000000000000000000000 5
b0000000000 6
b00000000000000000000000000000000 7
b00000000000000000000000000000000 8
b0000000000 9
b00000000000000000000000000000000 :
b00000000000000000000000000000000 ;
1<
b0000000 =
1>
b1000 ?
0@
0A
0B
0C
0D
b00000000000000000000001010000000 E
b00000000000000000000000000010000 F
b00000000000000000000000001100000 G
b00000000000000000000000000110000 H
b00000000000000000000000010100000 I
b00000000000000000000001100100000 J
b00000000000000000000000111100000 K
b00000000000000000000000000001010 L
b00000000000000000000000000000010 M
b00000000000000000000000000100001 N
b00000000000000000000000000101101 O
b00000000000000000000001000001101 P
b00 Q
b00 R
b0000 S
b0000 T
b0000 U
#15
0>
#20
1>
#25
0>
#30
1>
#35
0>
#40
1>
#45
0>
#50
1>
#55
0>
#60
0<
1>
b0000 ?
#65
0>
#70
1>
#75
0>
#80
1>
#85
0>
#90
1>
#95
0>
#100
1>
#105
0>
#110
b00000001 &
b00000001 '
b00000001 (
b00000010 )
b00000000000000000000000000000001 .
1<
1>
b1000 ?
#115
0>
#120
1>
#125
0>
#130
1>
#135
0>
#140
1>
#145
0>
#150
1>
#155
0>
#160
0<
1>
b0000 ?
#165
0>
#170
1>
#175
0>
#180
1>
#185
0>
#190
1>
#195
0>
#200
1>
#205
0>
#210
b00000010 &
b00000010 '
b00000010 (
b00000011 )
b00000000000000000000000000000010 .
1<
1>
b1000 ?
#215
0>
#220
1>
#225
0>
#230
1>
#235
0>
#240
1>
#245
0>
#250
1>
#255
0>
#260
0<
1>
b0000 ?
#265
0>
#270
1>
#275
0>
#280
1>
#285
0>
#290
1>
#295
0>
#300
1>
#305
0>
#310
b00000011 &
b00000011 '
b00000011 (
b00000100 )
b00000000000000000000000000000011 .
1<
1>
b1000 ?
#315
0>
#320
1>
#325
0>
#330
1>
#335
0>
#340
1>
#345
0>
#350
1>
#355
0>
#360
0<
1>
b0000 ?
#365
0>
#370
1>
#375
0>
#380
1>
#385
0>
#390
1>
#395
0>
#400
1>
#405
0>
#410
b00000100 &
b00000100 '
b00000100 (
b00000101 )
b00000000000000000000000000000100 .
1<
1>
b1000 ?
#415
0>
#420
1>
#425
0>
#430
1>
#435
0>
#440
1>
#445
0>
#450
1>
#455
0>
#460
0<
1>
b0000 ?
#465
0>
#470
1>
#475
0>
#480
1>
#485
0>
#490
1>
#495
0>
#500
1>
#505
0>
#510
b00000101 &
b00000101 '
b00000101 (
b00000110 )
b00000000000000000000000000000101 .
1<
1>
b1000 ?
#515
0>
#520
1>
#525
0>
#530
1>
#535
0>
#540
1>
#545
0>
#550
1>
#555
0>
#560
0<
1>
b0000 ?
#565
0>
#570
1>
#575
0>
#580
1>
#585
0>
#590
1>
#595
0>
#600
1>
#605
0>
#610
b00000110 &
b00000110 '
b00000110 (
b00000111 )
b00000000000000000000000000000110 .
1<
1>
b1000 ?
#615
0>
#620
1>
#625
0>
#630
1>
#635
0>
#640
1>
#645
0>
#650
1>
#655
0>
#660
0<
1>
b0000 ?
#665
0>
#670
1>
#675
0>
#680
1>
#685
0>
#690
1>
#695
0>
#700
1>
#705
0>
#710
b00000111 &
b00000111 '
b00000111 (
b00001000 )
b00000000000000000000000000000111 .
1<
1>
b1000 ?
#715
0>
#720
1>
#725
0>
#730
1>
#735
0>
#740
1>
#745
0>
#750
1>
#755
0>
#760
0<
1>
b0000 ?
#765
0>
#770
1>
#775
0>
#780
1>
#785
0>
#790
1>
#795
0>
#800
1>
#805
0>
#810
b00001000 &
b00001000 '
b00001000 (
b00001001 )
b00000000000000000000000000001000 .
1<
1>
b1000 ?
#815
0>
#820
1>
#825
0>
#830
1>
#835
0>
#840
1>
#845
0>
#850
1>
#855
0>
#860
0<
1>
b0000 ?
#865
0>
#870
1>
#875
0>
#880
1>
#885
0>
#890
1>
#895
0>
#900
1>
#905
0>
#910
b00001001 &
b00001001 '
b00001001 (
b00001010 )
b00000000000000000000000000001001 .
1<
1>
b1000 ?
#915
0>
#920
1>
#925
0>
#930
1>
#935
0>
#940
1>
#945
0>
#950
1>
#955
0>
#960
0<
1>
b0000 ?
#965
0>
#970
1>
#975
0>
#980
1>
#985
0>
#990
1>
#995
0>
#1000
1>
#1005
0>
#1010
b00001010 &
b00001010 '
b00001010 (
b00001011 )
b00000000000000000000000000001010 .
1<
1>
b1000 ?
#1015
0>
#1020
1>
#1025
0>
#1030
1>
#1035
0>
#1040
1>
#1045
0>
#1050
1>
#1055
0>
#1060
0<
1>
b0000 ?
#1065
0>
#1070
1>
#1075
0>
#1080
1>
#1085
0>
#1090
1>
#1095
0>
#1100
1>
#1105
0>
#1110
b00001011 &
b00001011 '
b00001011 (
b00001100 )
b00000000000000000000000000001011 .
1<
1>
b1000 ?
#1115
0>
#1120
1>
#1125
0>
#1130
1>
#1135
0>
#1140
1>
#1145
0>
#1150
1>
#1155
0>
#1160
0<
1>
b0000 ?
#1165
0>
#1170
1>
#1175
0>
#1180
1>
#1185
0>
#1190
1>
#1195
0>
#1200
1>
#1205
0>
#1210
b00001100 &
b00001100 '
b00001100 (
b00001101 )
b00000000000000000000000000001100 .
1<
1>
b1000 ?
#1215
0>
#1220
1>
#1225
0>
#1230
1>
#1235
0>
#1240
1>
#1245
0>
#1250
1>
#1255
0>
#1260
0<
1>
b0000 ?
#1265
0>
#1270
1>
#1275
0>
#1280
1>
#1285
0>
#1290
1>
#1295
0>
#1300
1>
#1305
0>
#1310
b00001101 &
b00001101 '
b00001101 (
b00001110 )
b00000000000000000000000000001101 .
1<
1>
b1000 ?
#1315
0>
#1320
1>
#1325
0>
#1330
1>
#1335
0>
#1340
1>
#1345
0>
#1350
1>
#1355
0>
#1360
0<
1>
b0000 ?
#1365
0>
#1370
1>
#1375
0>
#1380
1>
#1385
0>
#1390
1>
#1395
0>
#1400
1>
#1405
0>
#1410
b00001110 &
b00001110 '
b00001110 (
b00001111 )
b00000000000000000000000000001110 .
1<
1>
b1000 ?
#1415
0>
#1420
1>
#1425
0>
#1430
1>
#1435
0>
#1440
1>
#1445
0>
#1450
1>
#1455
0>
#1460
0<
1>
b0000 ?
#1465
0>
#1470
1>
#1475
0>
#1480
1>
#1485
0>
#1490
1>
#1495
0>
#1500
1>
#1505
0>
#1510
b00001111 &
b00001111 '
b00001111 (
b00010000 )
b00000000000000000000000000001111 .
1<
1>
b1000 ?
#1515
0>
#1520
1>
#1525
0>
#1530
1>
#1535
0>
#1540
1>
#1545
0>
#1550
1>
#1555
0>
#1560
0<
1>
b0000 ?
#1565
0>
#1570
1>
#1575
0>
#1580
1>
#1585
0>
#1590
1>
#1595
0>
#1600
1>
#1605
0>
#1610
b00010000 &
b00010000 '
b00010000 (
b00010001 )
b00000000000000000000000000010000 .
1<
1>
b1000 ?
#1615
0>
#1620
1>
#1625
0>
#1630
1>
#1635
0>
#1640
1>
#1645
0>
#1650
1>
#1655
0>
#1660
0<
1>
b0000 ?
#1665
0>
#1670
1>
#1675
0>
#1680
1>
#1685
0>
#1690
1>
#1695
0>
#1700
1>
#1705
0>
#1710
b00010001 &
b00010001 '
b00010001 (
b00010010 )
b00000000000000000000000000010001 .
1<
1>
b1000 ?
#1715
0>
#1720
1>
#1725
0>
#1730
1>
#1735
0>
#1740
1>
#1745
0>
#1750
1>
#1755
0>
#1760
0<
1>
b0000 ?
#1765
0>
#1770
1>
#1775
0>
#1780
1>
#1785
0>
#1790
1>
#1795
0>
#1800
1>
#1805
0>
#1810
b00010010 &
b00010010 '
b00010010 (
b00010011 )
b00000000000000000000000000010010 .
1<
1>
b1000 ?
#1815
0>
#1820
1>
#1825
0>
#1830
1>
#1835
0>
#1840
1>
#1845
0>
#1850
1>
#1855
0>
#1860
0<
1>
b0000 ?
#1865
0>
#1870
1>
#1875
0>
#1880
1>
#1885
0>
#1890
1>
#1895
0>
#1900
1>
#1905
0>
#1910
b00010011 &
b00010011 '
b00010011 (
b00010100 )
b00000000000000000000000000010011 .
1<
1>
b1000 ?
#1915
0>
#1920
1>
#1925
0>
#1930
1>
#1935
0>
#1940
1>
#1945
0>
#1950
1>
#1955
0>
#1960
0<
1>
b0000 ?
#1965
0>
#1970
1>
#1975
0>
#1980
1>
#1985
0>
#1990
1>
#1995
0>
#2000
1>
#2005
0>
#2010
b00010100 &
b00010100 '
b00010100 (
b00010101 )
b00000000000000000000000000010100 .
1<
1>
b1000 ?
#2015
0>
#2020
1>
#2025
0>
#2030
1>
#2035
0>
#2040
1>
#2045
0>
#2050
1>
#2055
0>
#2060
0<
1>
b0000 ?
#2065
0>
#2070
1>
#2075
0>
#2080
1>
#2085
0>
#2090
1>
#2095
0>
#2100
1>
#2105
0>
#2110
b00010101 &
b00010101 '
b00010101 (
b00010110 )
b00000000000000000000000000010101 .
1<
1>
b1000 ?
#2115
0>
#2120
1>
#2125
0>
#2130
1>
#2135
0>
#2140
1>
#2145
0>
#2150
1>
#2155
0>
#2160
0<
1>
b0000 ?
#2165
0>
#2170
1>
#2175
0>
#2180
1>
#2185
0>
#2190
1>
#2195
0>
#2200
1>
#2205
0>
#2210
b00010110 &
b00010110 '
b00010110 (
b00010111 )
b00000000000000000000000000010110 .
1<
1>
b1000 ?
#2215
0>
#2220
1>
#2225
0>
#2230
1>
#2235
0>
#2240
1>
#2245
0>
#2250
1>
#2255
0>
#2260
0<
1>
b0000 ?
#2265
0>
#2270
1>
#2275
0>
#2280
1>
#2285
0>
#2290
1>
#2295
0>
#2300
1>
#2305
0>
#2310
b00010111 &
b00010111 '
b00010111 (
b00011000 )
b00000000000000000000000000010111 .
1<
1>
b1000 ?
#2315
0>
#2320
1>
#2325
0>
#2330
1>
#2335
0>
#2340
1>
#2345
0>
#2350
1>
#2355
0>
#2360
0<
1>
b0000 ?
#2365
0>
#2370
1>
#2375
0>
#2380
1>
#2385
0>
#2390
1>
#2395
0>
#2400
1>
#2405
0>
#2410
b00011000 &
b00011000 '
b00011000 (
b00011001 )
b00000000000000000000000000011000 .
1<
1>
b1000 ?
#2415
0>
#2420
1>
#2425
0>
#2430
1>
#2435
0>
#2440
1>
#2445
0>
#2450
1>
#2455
0>
#2460
0<
1>
b0000 ?
#2465
0>
#2470
1>
#2475
0>
#2480
1>
#2485
0>
#2490
1>
#2495
0>
#2500
1>
#2505
0>
#2510
b00011001 &
b00011001 '
b00011001 (
b00011010 )
b00000000000000000000000000011001 .
1<
1>
b1000 ?
#2515
0>
#2520
1>
#2525
0>
#2530
1>
#2535
0>
#2540
1>
#2545
0>
#2550
1>
#2555
0>
#2560
0<
1>
b0000 ?
#2565
0>
#2570
1>
#2575
0>
#2580
1>
#2585
0>
#2590
1>
#2595
0>
#2600
1>
#2605
0>
#2610
b00011010 &
b00011010 '
b00011010 (
b00011011 )
b00000000000000000000000000011010 .
1<
1>
b1000 ?
#2615
0>
#2620
1>
#2625
0>
#2630
1>
#2635
0>
#2640
1>
#2645
0>
#2650
1>
#2655
0>
#2660
0<
1>
b0000 ?
#2665
0>
#2670
1>
#2675
0>
#2680
1>
#2685
0>
#2690
1>
#2695
0>
#2700
1>
#2705
0>
#2710
b00011011 &
b00011011 '
b00011011 (
b00011100 )
b00000000000000000000000000011011 .
1<
1>
b1000 ?
#2715
0>
#2720
1>
#2725
0>
#2730
1>
#2735
0>
#2740
1>
#2745
0>
#2750
1>
#2755
0>
#2760
0<
1>
b0000 ?
#2765
0>
#2770
1>
#2775
0>
#2780
1>
#2785
0>
#2790
1>
#2795
0>
#2800
1>
#2805
0>
#2810
b00011100 &
b00011100 '
b00011100 (
b00011101 )
b00000000000000000000000000011100 .
1<
1>
b1000 ?
#2815
0>
#2820
1>
#2825
0>
#2830
1>
#2835
0>
#2840
1>
#2845
0>
#2850
1>
#2855
0>
#2860
0<
1>
b0000 ?
#2865
0>
#2870
1>
#2875
0>
#2880
1>
#2885
0>
#2890
1>
#2895
0>
#2900
1>
#2905
0>
#2910
b00011101 &
b00011101 '
b00011101 (
b00011110 )
b00000000000000000000000000011101 .
1<
1>
b1000 ?
#2915
0>
#2920
1>
#2925
0>
#2930
1>
#2935
0>
#2940
1>
#2945
0>
#2950
1>
#2955
0>
#2960
0<
1>
b0000 ?
#2965
0>
#2970
1>
#2975
0>
#2980
1>
#2985
0>
#2990
1>
#2995
0>
#3000
1>
#3005
0>
#3010
b00011110 &
b00011110 '
b00011110 (
b00011111 )
b00000000000000000000000000011110 .
1<
1>
b1000 ?
#3015
0>
#3020
1>
#3025
0>
#3030
1>
#3035
0>
#3040
1>
#3045
0>
#3050
1>
#3055
0>
#3060
0<
1>
b0000 ?
#3065
0>
#3070
1>
#3075
0>
#3080
1>
#3085
0>
#3090
1>
#3095
0>
#3100
1>
#3105
0>
#3110
b00011111 &
b00011111 '
b00011111 (
b00100000 )
b00000000000000000000000000011111 .
1<
1>
b1000 ?
#3115
0>
#3120
1>
#3125
0>
#3130
1>
#3135
0>
#3140
1>
#3145
0>
#3150
1>
#3155
0>
#3160
0<
1>
b0000 ?
#3165
0>
#3170
1>
#3175
0>
#3180
1>
#3185
0>
#3190
1>
#3195
0>
#3200
1>
#3205
0>
#3210
b00100000 &
b00100000 '
b00100000 (
b00100001 )
b00000000000000000000000000100000 .
1<
1>
b1000 ?
#3215
0>
#3220
1>
#3225
0>
#3230
1>
#3235
0>
#3240
1>
#3245
0>
#3250
1>
#3255
0>
#3260
0<
1>
b0000 ?
#3265
0>
#3270
1>
#3275
0>
#3280
1>
#3285
0>
#3290
1>
#3295
0>
#3300
1>
#3305
0>
#3310
b00100001 &
b00100001 '
b00100001 (
b00100010 )
b00000000000000000000000000100001 .
1<
1>
b1000 ?
#3315
0>
#3320
1>
#3325
0>
#3330
1>
#3335
0>
#3340
1>
#3345
0>
#3350
1>
#3355
0>
#3360
0<
1>
b0000 ?
#3365
0>
#3370
1>
#3375
0>
#3380
1>
#3385
0>
#3390
1>
#3395
0>
#3400
1>
#3405
0>
#3410
b00100010 &
b00100010 '
b00100010 (
b00100011 )
b00000000000000000000000000100010 .
1<
1>
b1000 ?
#3415
0>
#3420
1>
#3425
0>
#3430
1>
#3435
0>
#3440
1>
#3445
0>
#3450
1>
#3455
0>
#3460
0<
1>
b0000 ?
#3465
0>
#3470
1>
#3475
0>
#3480
1>
#3485
0>
#3490
1>
#3495
0>
#3500
1>
#3505
0>
#3510
b00100011 &
b00100011 '
b00100011 (
b00100100 )
b00000000000000000000000000100011 .
1<
1>
b1000 ?
#3515
0>
#3520
1>
#3525
0>
#3530
1>
#3535
0>
#3540
1>
#3545
0>
#3550
1>
#3555
0>
#3560
0<
1>
b0000 ?
#3565
0>
#3570
1>
#3575
0>
#3580
1>
#3585
0>
#3590
1>
#3595
0>
#3600
1>
#3605
0>
#3610
b00100100 &
b00100100 '
b00100100 (
b00100101 )
b00000000000000000000000000100100 .
1<
1>
b1000 ?
#3615
0>
#3620
1>
#3625
0>
#3630
1>
#3635
0>
#3640
1>
#3645
0>
#3650
1>
#3655
0>
#3660
0<
1>
b0000 ?
#3665
0>
#3670
1>
#3675
0>
#3680
1>
#3685
0>
#3690
1>
#3695
0>
#3700
1>
#3705
0>
#3710
b00100101 &
b00100101 '
b00100101 (
b00100110 )
b00000000000000000000000000100101 .
1<
1>
b1000 ?
#3715
0>
#3720
1>
#3725
0>
#3730
1>
#3735
0>
#3740
1>
#3745
0>
#3750
1>
#3755
0>
#3760
0<
1>
b0000 ?
#3765
0>
#3770
1>
#3775
0>
#3780
1>
#3785
0>
#3790
1>
#3795
0>
#3800
1>
#3805
0>
#3810
b00100110 &
b00100110 '
b00100110 (
b00100111 )
b00000000000000000000000000100110 .
1<
1>
b1000 ?
#3815
0>
#3820
1>
#3825
0>
#3830
1>
#3835
0>
#3840
1>
#3845
0>
#3850
1>
#3855
0>
#3860
0<
1>
b0000 ?
#3865
0>
#3870
1>
#3875
0>
#3880
1>
#3885
0>
#3890
1>
#3895
0>
#3900
1>
#3905
0>
#3910
b00100111 &
b00100111 '
b00100111 (
b00101000 )
b00000000000000000000000000100111 .
1<
1>
b1000 ?
#3915
0>
#3920
1>
#3925
0>
#3930
1>
#3935
0>
#3940
1>
#3945
0>
#3950
1>
#3955
0>
#3960
0<
1>
b0000 ?
#3965
0>
#3970
1>
#3975
0>
#3980
1>
#3985
0>
#3990
1>
#3995
0>
#4000
1>
#4005
0>
#4010
b00101000 &
b00101000 '
b00101000 (
b00101001 )
b00000000000000000000000000101000 .
1<
1>
b1000 ?
#4015
0>
#4020
1>
#4025
0>
#4030
1>
#4035
0>
#4040
1>
#4045
0>
#4050
1>
#4055
0>
#4060
0<
1>
b0000 ?
#4065
0>
#4070
1>
#4075
0>
#4080
1>
#4085
0>
#4090
1>
#4095
0>
#4100
1>
#4105
0>
#4110
b00101001 &
b00101001 '
b00101001 (
b00101010 )
b00000000000000000000000000101001 .
1<
1>
b1000 ?
#4115
0>
#4120
1>
#4125
0>
#4130
1>
#4135
0>
#4140
1>
#4145
0>
#4150
1>
#4155
0>
#4160
0<
1>
b0000 ?
#4165
0>
#4170
1>
#4175
0>
#4180
1>
#4185
0>
#4190
1>
#4195
0>
#4200
1>
#4205
0>
#4210
b00101010 &
b00101010 '
b00101010 (
b00101011 )
b00000000000000000000000000101010 .
1<
1>
b1000 ?
#4215
0>
#4220
1>
#4225
0>
#4230
1>
#4235
0>
#4240
1>
#4245
0>
#4250
1>
#4255
0>
#4260
0<
1>
b0000 ?
#4265
0>
#4270
1>
#4275
0>
#4280
1>
#4285
0>
#4290
1>
#4295
0>
#4300
1>
#4305
0>
#4310
b00101011 &
b00101011 '
b00101011 (
b00101100 )
b00000000000000000000000000101011 .
1<
1>
b1000 ?
#4315
0>
#4320
1>
#4325
0>
#4330
1>
#4335
0>
#4340
1>
#4345
0>
#4350
1>
#4355
0>
#4360
0<
1>
b0000 ?
#4365
0>
#4370
1>
#4375
0>
#4380
1>
#4385
0>
#4390
1>
#4395
0>
#4400
1>
#4405
0>
#4410
b00101100 &
b00101100 '
b00101100 (
b00101101 )
b00000000000000000000000000101100 .
1<
1>
b1000 ?
#4415
0>
#4420
1>
#4425
0>
#4430
1>
#4435
0>
#4440
1>
#4445
0>
#4450
1>
#4455
0>
#4460
0<
1>
b0000 ?
#4465
0>
#4470
1>
#4475
0>
#4480
1>
#4485
0>
#4490
1>
#4495
0>
#4500
1>
#4505
0>
#4510
b00101101 &
b00101101 '
b00101101 (
b00101110 )
b00000000000000000000000000101101 .
1<
1>
b1000 ?
#4515
0>
#4520
1>
#4525
0>
#4530
1>
#4535
0>
#4540
1>
#4545
0>
#4550
1>
#4555
0>
#4560
0<
1>
b0000 ?
#4565
0>
#4570
1>
#4575
0>
#4580
1>
#4585
0>
#4590
1>
#4595
0>
#4600
1>
#4605
0>
#4610
b00101110 &
b00101110 '
b00101110 (
b00101111 )
b00000000000000000000000000101110 .
1<
1>
b1000 ?
#4615
0>
#4620
1>
#4625
0>
#4630
1>
#4635
0>
#4640
1>
#4645
0>
#4650
1>
#4655
0>
#4660
0<
1>
b0000 ?
#4665
0>
#4670
1>
#4675
0>
#4680
1>
#4685
0>
#4690
1>
#4695
0>
#4700
1>
#4705
0>
#4710
b00101111 &
b00101111 '
b00101111 (
b00110000 )
b00000000000000000000000000101111 .
1<
1>
b1000 ?
#4715
0>
#4720
1>
#4725
0>
#4730
1>
#4735
0>
#4740
1>
#4745
0>
#4750
1>
#4755
0>
#4760
0<
1>
b0000 ?
#4765
0>
#4770
1>
#4775
0>
#4780
1>
#4785
0>
#4790
1>
#4795
0>
#4800
1>
#4805
0>
#4810
b00110000 &
b00110000 '
b00110000 (
b00110001 )
b00000000000000000000000000110000 .
1<
1>
b1000 ?
#4815
0>
#4820
1>
#4825
0>
#4830
1>
#4835
0>
#4840
1>
#4845
0>
#4850
1>
#4855
0>
#4860
0<
1>
b0000 ?
#4865
0>
#4870
1>
#4875
0>
#4880
1>
#4885
0>
#4890
1>
#4895
0>
#4900
1>
#4905
0>
#4910
b00110001 &
b00110001 '
b00110001 (
b00110010 )
b00000000000000000000000000110001 .
1<
1>
b1000 ?
#4915
0>
#4920
1>
#4925
0>
#4930
1>
#4935
0>
#4940
1>
#4945
0>
#4950
1>
#4955
0>
#4960
0<
1>
b0000 ?
#4965
0>
#4970
1>
#4975
0>
#4980
1>
#4985
0>
#4990
1>
#4995
0>
#5000
1>
#5005
0>
#5010
b00110010 &
b00110010 '
b00110010 (
b00110011 )
b00000000000000000000000000110010 .
1<
1>
b1000 ?
#5015
0>
#5020
1>
#5025
0>
#5030
1>
#5035
0>
#5040
1>
#5045
0>
#5050
1>
#5055
0>
#5060
0<
1>
b0000 ?
#5065
0>
#5070
1>
#5075
0>
#5080
1>
#5085
0>
#5090
1>
#5095
0>
#5100
1>
#5105
0>
#5110
b00110011 &
b00110011 '
b00110011 (
b00110100 )
b00000000000000000000000000110011 .
1<
1>
b1000 ?
#5115
0>
#5120
1>
#5125
0>
#5130
1>
#5135
0>
#5140
1>
#5145
0>
#5150
1>
#5155
0>
#5160
0<
1>
b0000 ?
#5165
0>
#5170
1>
#5175
0>
#5180
1>
#5185
0>
#5190
1>
#5195
0>
#5200
1>
#5205
0>
#5210
b00110100 &
b00110100 '
b00110100 (
b00110101 )
b00000000000000000000000000110100 .
1<
1>
b1000 ?
#5215
0>
#5220
1>
#5225
0>
#5230
1>
#5235
0>
#5240
1>
#5245
0>
#5250
1>
#5255
0>
#5260
0<
1>
b0000 ?
#5265
0>
#5270
1>
#5275
0>
#5280
1>
#5285
0>
#5290
1>
#5295
0>
#5300
1>
#5305
0>
#5310
b00110101 &
b00110101 '
b00110101 (
b00110110 )
b00000000000000000000000000110101 .
1<
1>
b1000 ?
#5315
0>
#5320
1>
#5325
0>
#5330
1>
#5335
0>
#5340
1>
#5345
0>
#5350
1>
#5355
0>
#5360
0<
1>
b0000 ?
#5365
0>
#5370
1>
#5375
0>
#5380
1>
#5385
0>
#5390
1>
#5395
0>
#5400
1>
#5405
0>
#5410
b00110110 &
b00110110 '
b00110110 (
b00110111 )
b00000000000000000000000000110110 .
1<
1>
b1000 ?
#5415
0>
#5420
1>
#5425
0>
#5430
1>
#5435
0>
#5440
1>
#5445
0>
#5450
1>
#5455
0>
#5460
0<
1>
b0000 ?
#5465
0>
#5470
1>
#5475
0>
#5480
1>
#5485
0>
#5490
1>
#5495
0>
#5500
1>
#5505
0>
#5510
b00110111 &
b00110111 '
b00110111 (
b00111000 )
b00000000000000000000000000110111 .
1<
1>
b1000 ?
#5515
0>
#5520
1>
#5525
0>
#5530
1>
#5535
0>
#5540
1>
#5545
0>
#5550
1>
#5555
0>
#5560
0<
1>
b0000 ?
#5565
0>
#5570
1>
#5575
0>
#5580
1>
#5585
0>
#5590
1>
#5595
0>
#5600
1>
#5605
0>
#5610
b00111000 &
b00111000 '
b00111000 (
b00111001 )
b00000000000000000000000000111000 .
1<
1>
b1000 ?
#5615
0>
#5620
1>
#5625
0>
#5630
1>
#5635
0>
#5640
1>
#5645
0>
#5650
1>
#5655
0>
#5660
0<
1>
b0000 ?
#5665
0>
#5670
1>
#5675
0>
#5680
1>
#5685
0>
#5690
1>
#5695
0>
#5700
1>
#5705
0>
#5710
b00111001 &
b00111001 '
b00111001 (
b00111010 )
b00000000000000000000000000111001 .
1<
1>
b1000 ?
#5715
0>
#5720
1>
#5725
0>
#5730
1>
#5735
0>
#5740
1>
#5745
0>
#5750
1>
#5755
0>
#5760
0<
1>
b0000 ?
#5765
0>
#5770
1>
#5775
0>
#5780
1>
#5785
0>
#5790
1>
#5795
0>
#5800
1>
#5805
0>
#5810
b00111010 &
b00111010 '
b00111010 (
b00111011 )
b00000000000000000000000000111010 .
1<
1>
b1000 ?
#5815
0>
#5820
1>
#5825
0>
#5830
1>
#5835
0>
#5840
1>
#5845
0>
#5850
1>
#5855
0>
#5860
0<
1>
b0000 ?
#5865
0>
#5870
1>
#5875
0>
#5880
1>
#5885
0>
#5890
1>
#5895
0>
#5900
1>
#5905
0>
#5910
b00111011 &
b00111011 '
b00111011 (
b00111100 )
b00000000000000000000000000111011 .
1<
1>
b1000 ?
#5915
0>
#5920
1>
#5925
0>
#5930
1>
#5935
0>
#5940
1>
#5945
0>
#5950
1>
#5955
0>
#5960
0<
1>
b0000 ?
#5965
0>
#5970
1>
#5975
0>
#5980
1>
#5985
0>
#5990
1>
#5995
0>
#6000
1>
#6005
0>
#6010
b00111100 &
b00111100 '
b00111100 (
b00111101 )
b00000000000000000000000000111100 .
1<
1>
b1000 ?
#6015
0>
#6020
1>
#6025
0>
#6030
1>
#6035
0>
#6040
1>
#6045
0>
#6050
1>
#6055
0>
#6060
0<
1>
b0000 ?
#6065
0>
#6070
1>
#6075
0>
#6080
1>
#6085
0>
#6090
1>
#6095
0>
#6100
1>
#6105
0>
#6110
b00111101 &
b00111101 '
b00111101 (
b00111110 )
b00000000000000000000000000111101 .
1<
1>
b1000 ?
#6115
0>
#6120
1>
#6125
0>
#6130
1>
#6135
0>
#6140
1>
#6145
0>
#6150
1>
#6155
0>
#6160
0<
1>
b0000 ?
#6165
0>
#6170
1>
#6175
0>
#6180
1>
#6185
0>
#6190
1>
#6195
0>
#6200
1>
#6205
0>
#6210
b00111110 &
b00111110 '
b00111110 (
b00111111 )
b00000000000000000000000000111110 .
1<
1>
b1000 ?
#6215
0>
#6220
1>
#6225
0>
#6230
1>
#6235
0>
#6240
1>
#6245
0>
#6250
1>
#6255
0>
